[
{
    "fields": {
        "nom": "Interprofessionals",
        "created_at": "2015-01-21T10:58:08.344Z",
        "nif": "F55162358",
        "nom_fiscal": "Interprofessionals, SCCL",
        "updated_at": "2015-01-21T10:58:08.344Z"
    },
    "model": "empreses.empresa",
    "pk": 1
},
{
    "fields": {
        "nom": "Xarxa Integral de Professionals i Usu\u00e0ries",
        "created_at": "2015-01-21T10:58:22.312Z",
        "nif": "F65343287",
        "nom_fiscal": "Xarxa Integral de Professionals i Usu\u00e0ries, SCCL",
        "updated_at": "2015-01-21T10:58:22.312Z"
    },
    "model": "empreses.empresa",
    "pk": 2
},
{
    "fields": {
        "nom": "Ar\u00e7",
        "created_at": "2015-01-21T15:18:17.401Z",
        "nif": "F58302001",
        "nom_fiscal": "AR\u00c7, Corredoria d\u2019Assegurances, SCCL",
        "updated_at": "2015-01-28T23:33:40.697Z"
    },
    "model": "empreses.empresa",
    "pk": 3
},
{
    "fields": {
        "nom": "Altres",
        "created_at": "2015-01-21T15:30:34.347Z",
        "nif": "2222",
        "nom_fiscal": "Altres",
        "updated_at": "2015-01-21T15:30:34.347Z"
    },
    "model": "empreses.empresa",
    "pk": 4
},
{
    "fields": {},
    "model": "empreses.cooperativa",
    "pk": 1
},
{
    "fields": {},
    "model": "empreses.cooperativa",
    "pk": 2
},
{
    "fields": {},
    "model": "empreses.empresaasseguradora",
    "pk": 3
},
{
    "fields": {},
    "model": "empreses.empresaasseguradora",
    "pk": 4
}
]

